{
  "command" : "cplic-print-x-n-p",
  "metrics" : [ {
    "tags" : {
      "im.metric-type" : "runtime",
      "im.name" : "licenses"
    },
    "value" : [ {
      "ip" : "192.168.250.5",
      "features" : "::CK-00-1C-7F-35-6B-00 fw1:6.0:swb fw1:6.0:swb fw1:6.0:abot fw1:6.0:swb fw1:6.0:appi fw1:6.0:swb fw1:6.0:ipss1 fw1:6.0:swb fw1:6.0:cluster-1 fw1:6.0:cpls fw1:6.0:cluster-u fw1:6.0:mpu fw1:6.0:sxl_vpn fw1:6.0:sxl_fw fw1:6.0:sxl_ppk fw1:6.0:swb fw1:6.0:connect fw1:6.0:pam etm:6.0:fgcountunl etm:6.0:fg etm:6.0:tclog etm:6.0:fgvpn fw1:6.0:swb cvpn:6.0:ccv1 cvpn:6.0:ccv1 cvpn:6.0:ccv1 cvpn:6.0:ccv1 cvpn:6.0:ccv1 cvpn:6.0:cvpn1users cvpn:6.0:cvpn1users cvpn:6.0:cvpn1users cvpn:6.0:cvpn1users cvpn:6.0:cvpn1users fw1:6.0:des fw1:6.0:strong fw1:6.0:encryption cvpn:6.0:cvpn fw1:6.0:swb fw1:6.0:identity fw1:6.0:swb fw1:6.0:fwc fw1:6.0:ca fw1:6.0:rtmui fw1:6.0:sstui fw1:6.0:fwlv fw1:6.0:cmd fw1:6.0:swb fw1:6.0:vpe_unlimit fw1:6.0:cluster-u fw1:6.0:remote1 fw1:6.0:aes fw1:6.0:strong fw1:6.0:rdp fw1:6.0:des fw1:6.0:isakmp fw1:6.0:ca fw1:6.0:cluster-u fw1:6.0:dbvr_unlimit fw1:6.0:cmpmgmt fw1:6.0:rtmmgmt fw1:6.0:fgmgmt fw1:6.0:rtmui fw1:6.0:sstui fw1:6.0:fwlv fw1:6.0:ui fw1:6.0:filter fw1:6.0:fwc fw1:6.0:cmd fw1:6.0:swb fw1:6.0:spcps fw1:6.0:pam fw1:6.0:enchostsunlimit fw1:6.0:encryption fw1:6.0:aes fw1:6.0:strong fw1:6.0:rdp fw1:6.0:des fw1:6.0:isakmp fw1:6.0:blades fw1:6.0:cpipv6 fw1:6.0:mgmtha fw1:6.0:remote2 fw1:6.0:swb fw1:6.0:xlate fw1:6.0:auth fw1:6.0:content fw1:6.0:sync fw1:6.0:fm fw1:6.0:hostsunlimit fw1:6.0:sxl_vpn fw1:6.0:sxl_fw fw1:6.0:sync fw1:6.0:fm fw1:6.0:blades fw1:6.0:sxl_vpn fw1:6.0:sxl_fw fw1:6.0:sr500 fw1:6.0:hosts500 fw1:6.0:sxl_vpn fw1:6.0:sxl_fw fw1:6.0:sync fw1:6.0:fm fw1:6.0:mc_all_2 fw1:6.0:multicore",
      "signature" : "dc2UiaDd9cADcecLzowpP3sjBNeahhcWJ6wv",
      "ck" : "::CK-00-1C-7F-35-6B-00",
      "expiration" : "never"
    }, {
      "ip" : "192.168.250.5",
      "features" : "::CK-00-1C-7F-3E-CB-00 fw1:6.0:swb evnt:6.0:smrt_evnt fw1:6.0:fwc fw1:6.0:ca fw1:6.0:rtmui fw1:6.0:sstui fw1:6.0:fwlv fw1:6.0:cmd evnt:6.0:alzd5 evnt:6.0:alzc1 evnt:6.0:alzs1 fw1:6.0:fwc fw1:6.0:ca fw1:6.0:rtmui fw1:6.0:sstui fw1:6.0:fwlv fw1:6.0:cmd evnt:6.0:alzd5 evnt:6.0:alzc1 evnt:6.0:alzs1 fw1:6.0:swb fw1:6.0:cluster-1 fw1:6.0:swb fw1:6.0:cpxmgmt_qos_u_sites fw1:6.0:sprounl",
      "signature" : "aMnLnwj16HedbJTAehzPVrt3f7YejRc2iQij",
      "ck" : "::CK-00-1C-7F-3E-CB-00",
      "expiration" : "never"
    }, {
      "ip" : "192.168.250.5",
      "features" : "::CK-BB582E120800 fw1:6.0:swb evnt:6.0:smrt_evnt fw1:6.0:ipsa fw1:6.0:swb fw1:6.0:routers fw1:6.0:supmgmt fw1:6.0:supunlimit fw1:6.0:prov fw1:6.0:atlas-unlimit fw1:6.0:swb etm:6.0:rtm_u fw1:6.0:swb fw1:6.0:fwc fw1:6.0:ca fw1:6.0:rtmui fw1:6.0:sstui fw1:6.0:fwlv fw1:6.0:cmd fw1:6.0:swb fw1:6.0:filter fw1:6.0:fwc fw1:6.0:rtmui fw1:6.0:sstui fw1:6.0:fwlv fw1:6.0:ui fw1:6.0:cmd psmp:6.0:psmsunlimited fw1:6.0:swb fw1:6.0:vpe_unlimit fw1:6.0:cluster-u fw1:6.0:remote1 fw1:6.0:aes fw1:6.0:strong fw1:6.0:rdp fw1:6.0:des fw1:6.0:isakmp fw1:6.0:ca fw1:6.0:cluster-u fw1:6.0:dbvr_unlimit fw1:6.0:cmpmgmt fw1:6.0:rtmmgmt fw1:6.0:fgmgmt fw1:6.0:rtmui fw1:6.0:sstui fw1:6.0:fwlv fw1:6.0:ui fw1:6.0:filter fw1:6.0:fwc fw1:6.0:cmd fw1:6.0:blades fw1:6.0:cpipv6 fw1:6.0:mgmtha fw1:6.0:remote4 fw1:6.0:remote4 fw1:6.0:remote4 fw1:6.0:remote4 fw1:6.0:remote4 fw1:6.0:remote1 fw1:6.0:remote4",
      "signature" : "a5YYu4b8ZBNu5KKaF7oU56BzcKY6dEtnHman",
      "ck" : "::CK-BB582E120800",
      "expiration" : "never"
    }, {
      "ip" : "192.168.250.5",
      "features" : "::CK-00-1C-7F-33-56-00 fw1:6.0:swb fw1:6.0:cluster-1 fw1:6.0:swb fw1:6.0:cpxmgmt_qos_u_sites fw1:6.0:sprounl",
      "signature" : "anr9fvx2c8z3XdW9zyUhQdJLCPY3ohc4PiHw",
      "ck" : "::CK-00-1C-7F-33-56-00",
      "expiration" : "never"
    } ]
  } ]
}
