{
  "command" : "chkp-gaia-verify_etc-hosts",
  "metrics" : [ {
    "tags" : {
      "im.dstype" : "gauge",
      "im.metric-type" : "ts",
      "im.name" : "hostname-exists-etc-hosts",
      "im.step" : "300"
    },
    "value" : "0.0"
  } ]
}
