{
  "command" : "panos-debug-dataplane-pool-statistics",
  "metrics" : [ {
    "tags" : {
      "im.dstype" : "gauge",
      "im.metric-type" : "ts",
      "im.name" : "dataplane-pool-limit",
      "im.step" : "1800",
      "name" : "CTD AV Block"
    },
    "value" : "32.0"
  }, {
    "tags" : {
      "im.dstype" : "gauge",
      "im.metric-type" : "ts",
      "im.name" : "dataplane-pool-limit",
      "im.step" : "1800",
      "name" : "CTD DECODE FILTER"
    },
    "value" : "65536.0"
  }, {
    "tags" : {
      "im.dstype" : "gauge",
      "im.metric-type" : "ts",
      "im.name" : "dataplane-pool-limit",
      "im.step" : "1800",
      "name" : "CTD DLP DATA"
    },
    "value" : "3912.0"
  }, {
    "tags" : {
      "im.dstype" : "gauge",
      "im.metric-type" : "ts",
      "im.name" : "dataplane-pool-limit",
      "im.step" : "1800",
      "name" : "CTD DLP FLOW"
    },
    "value" : "62504.0"
  }, {
    "tags" : {
      "im.dstype" : "gauge",
      "im.metric-type" : "ts",
      "im.name" : "dataplane-pool-limit",
      "im.step" : "1800",
      "name" : "CTD Flow"
    },
    "value" : "250000.0"
  }, {
    "tags" : {
      "im.dstype" : "gauge",
      "im.metric-type" : "ts",
      "im.name" : "dataplane-pool-limit",
      "im.step" : "1800",
      "name" : "DFA Result"
    },
    "value" : "1024.0"
  }, {
    "tags" : {
      "im.dstype" : "gauge",
      "im.metric-type" : "ts",
      "im.name" : "dataplane-pool-limit",
      "im.step" : "1800",
      "name" : "Detector Threats"
    },
    "value" : "65536.0"
  }, {
    "tags" : {
      "im.dstype" : "gauge",
      "im.metric-type" : "ts",
      "im.name" : "dataplane-pool-limit",
      "im.step" : "1800",
      "name" : "FPTCP segs"
    },
    "value" : "32768.0"
  }, {
    "tags" : {
      "im.dstype" : "gauge",
      "im.metric-type" : "ts",
      "im.name" : "dataplane-pool-limit",
      "im.step" : "1800",
      "name" : "Packet Buffers"
    },
    "value" : "57344.0"
  }, {
    "tags" : {
      "im.dstype" : "gauge",
      "im.metric-type" : "ts",
      "im.name" : "dataplane-pool-limit",
      "im.step" : "1800",
      "name" : "Proxy session"
    },
    "value" : "1024.0"
  }, {
    "tags" : {
      "im.dstype" : "gauge",
      "im.metric-type" : "ts",
      "im.name" : "dataplane-pool-limit",
      "im.step" : "1800",
      "name" : "Regex Results"
    },
    "value" : "8000.0"
  }, {
    "tags" : {
      "im.dstype" : "gauge",
      "im.metric-type" : "ts",
      "im.name" : "dataplane-pool-limit",
      "im.step" : "1800",
      "name" : "SML VM EmlInfo"
    },
    "value" : "16.0"
  }, {
    "tags" : {
      "im.dstype" : "gauge",
      "im.metric-type" : "ts",
      "im.name" : "dataplane-pool-limit",
      "im.step" : "1800",
      "name" : "SML VM Fields"
    },
    "value" : "500000.0"
  }, {
    "tags" : {
      "im.dstype" : "gauge",
      "im.metric-type" : "ts",
      "im.name" : "dataplane-pool-limit",
      "im.step" : "1800",
      "name" : "SML VM Vchecks"
    },
    "value" : "65536.0"
  }, {
    "tags" : {
      "im.dstype" : "gauge",
      "im.metric-type" : "ts",
      "im.name" : "dataplane-pool-limit",
      "im.step" : "1800",
      "name" : "SSH Handshake State"
    },
    "value" : "16.0"
  }, {
    "tags" : {
      "im.dstype" : "gauge",
      "im.metric-type" : "ts",
      "im.name" : "dataplane-pool-limit",
      "im.step" : "1800",
      "name" : "SSH State"
    },
    "value" : "128.0"
  }, {
    "tags" : {
      "im.dstype" : "gauge",
      "im.metric-type" : "ts",
      "im.name" : "dataplane-pool-limit",
      "im.step" : "1800",
      "name" : "SSL Handshake MAC State"
    },
    "value" : "2256.0"
  }, {
    "tags" : {
      "im.dstype" : "gauge",
      "im.metric-type" : "ts",
      "im.name" : "dataplane-pool-limit",
      "im.step" : "1800",
      "name" : "SSL Handshake State"
    },
    "value" : "1024.0"
  }, {
    "tags" : {
      "im.dstype" : "gauge",
      "im.metric-type" : "ts",
      "im.name" : "dataplane-pool-limit",
      "im.step" : "1800",
      "name" : "SSL State"
    },
    "value" : "2048.0"
  }, {
    "tags" : {
      "im.dstype" : "gauge",
      "im.metric-type" : "ts",
      "im.name" : "dataplane-pool-limit",
      "im.step" : "1800",
      "name" : "TCP host connections"
    },
    "value" : "16.0"
  }, {
    "tags" : {
      "im.dstype" : "gauge",
      "im.metric-type" : "ts",
      "im.name" : "dataplane-pool-limit",
      "im.step" : "1800",
      "name" : "TIMER Chunk"
    },
    "value" : "131072.0"
  }, {
    "tags" : {
      "im.dstype" : "gauge",
      "im.metric-type" : "ts",
      "im.name" : "dataplane-pool-limit",
      "im.step" : "1800",
      "name" : "Work Queue Entries"
    },
    "value" : "229376.0"
  }, {
    "tags" : {
      "im.dstype" : "gauge",
      "im.metric-type" : "ts",
      "im.name" : "dataplane-pool-limit",
      "im.step" : "1800",
      "name" : "software packet buffer 0"
    },
    "value" : "32768.0"
  }, {
    "tags" : {
      "im.dstype" : "gauge",
      "im.metric-type" : "ts",
      "im.name" : "dataplane-pool-limit",
      "im.step" : "1800",
      "name" : "software packet buffer 1"
    },
    "value" : "32768.0"
  }, {
    "tags" : {
      "im.dstype" : "gauge",
      "im.metric-type" : "ts",
      "im.name" : "dataplane-pool-limit",
      "im.step" : "1800",
      "name" : "software packet buffer 2"
    },
    "value" : "65536.0"
  }, {
    "tags" : {
      "im.dstype" : "gauge",
      "im.metric-type" : "ts",
      "im.name" : "dataplane-pool-limit",
      "im.step" : "1800",
      "name" : "software packet buffer 3"
    },
    "value" : "8192.0"
  }, {
    "tags" : {
      "im.dstype" : "gauge",
      "im.metric-type" : "ts",
      "im.name" : "dataplane-pool-limit",
      "im.step" : "1800",
      "name" : "software packet buffer 4"
    },
    "value" : "304.0"
  }, {
    "tags" : {
      "im.dstype" : "gauge",
      "im.metric-type" : "ts",
      "im.name" : "dataplane-pool-used",
      "im.step" : "1800",
      "name" : "Packet Buffers"
    },
    "value" : "1.0"
  }, {
    "tags" : {
      "im.dstype" : "gauge",
      "im.metric-type" : "ts",
      "im.name" : "dataplane-pool-used",
      "im.step" : "1800",
      "name" : "TCP host connections"
    },
    "value" : "1.0"
  }, {
    "tags" : {
      "im.dstype" : "gauge",
      "im.metric-type" : "ts",
      "im.name" : "dataplane-pool-used",
      "im.step" : "1800",
      "name" : "Work Queue Entries"
    },
    "value" : "5.0"
  }, {
    "tags" : {
      "im.dstype" : "gauge",
      "im.metric-type" : "ts",
      "im.name" : "dataplane-pool-used",
      "im.step" : "1800",
      "name" : "software packet buffer 0"
    },
    "value" : "1.0"
  } ]
}
