{
  "command" : "cpmds-cpstat-mg",
  "metrics" : [ {
    "tags" : {
      "display-name" : "Management Services Status",
      "im.dstype" : "gauge",
      "im.dstype.displaytype" : "state",
      "im.identity-tags" : "vs.name",
      "im.metric-type" : "ts",
      "im.name" : "mgmt-status",
      "im.step" : "300",
      "live-config" : "true",
      "vs.ip" : "10.10.6.10",
      "vs.name" : "lab-CP-MGMT-R7730_Management_Server"
    },
    "value" : "1.0"
  }, {
    "tags" : {
      "display-name" : "Management Services Status",
      "im.dstype" : "gauge",
      "im.dstype.displaytype" : "state",
      "im.identity-tags" : "vs.name",
      "im.metric-type" : "ts",
      "im.name" : "mgmt-status",
      "im.step" : "300",
      "live-config" : "true",
      "vs.ip" : "10.10.6.14",
      "vs.name" : "MDM-VSX_Management_Server"
    },
    "value" : "0.0"
  } ]
}
