{
  "command" : "nexus-http-server",
  "metrics" : [ {
    "tags" : {
      "display-name" : "HTTP Server Enabled",
      "im.metric-type" : "runtime",
      "im.name" : "http-server-enabled",
      "live-config" : "true"
    },
    "value" : {
      "value" : "true"
    }
  } ]
}
