{
  "command" : "linux-mpstat",
  "metrics" : [ {
    "tags" : {
      "cpu-id" : "0",
      "cpu-is-avg" : "false",
      "display-name" : "CPU",
      "im.dstype" : "gauge",
      "im.dstype.displaytype" : "percentage",
      "im.identity-tags" : "cpu-id",
      "im.metric-type" : "ts",
      "im.name" : "cpu-usage",
      "im.step" : "60",
      "live-config" : "true"
    },
    "values" : ["70.1", "78.1", "83.6", "91.22", "100.0", "100.0", "100.0", "100.0", "81", "73"]
  }, {
    "tags" : {
      "cpu-id" : "1",
      "cpu-is-avg" : "false",
      "display-name" : "CPU",
      "im.dstype" : "gauge",
      "im.dstype.displaytype" : "percentage",
      "im.identity-tags" : "cpu-id",
      "im.metric-type" : "ts",
      "im.name" : "cpu-usage",
      "im.step" : "60",
      "live-config" : "true"
    },
    "values" : ["20.1", "18.1", "23.6", "11.22", "100.0", "100.0", "100.0", "100.0", "11", "73"]
  }, {
    "tags" : {
      "cpu-id" : "2",
      "cpu-is-avg" : "false",
      "display-name" : "CPU",
      "im.dstype" : "gauge",
      "im.dstype.displaytype" : "percentage",
      "im.identity-tags" : "cpu-id",
      "im.metric-type" : "ts",
      "im.name" : "cpu-usage",
      "im.step" : "60",
      "live-config" : "true"
    },
    "values" : ["30.1", "48.1", "53.6", "61.22", "100.0", "100.0", "100.0", "100.0", "61", "73"]
  }, {
    "tags" : {
      "cpu-id" : "all-average",
      "cpu-is-avg" : "true",
      "display-name" : "CPU",
      "im.dstype" : "gauge",
      "im.dstype.displaytype" : "percentage",
      "im.identity-tags" : "cpu-id",
      "im.metric-type" : "ts",
      "im.name" : "cpu-usage",
      "im.step" : "60",
      "live-config" : "true"
    },
    "values" : ["10.1", "28.1", "33.6", "41.22", "100.0", "100.0", "100.0", "100.0", "81", "73"]
  } ]
}
