{
  "command" : "chkp-gaia-show_sysenv",
  "metrics" : [ {
    "tags" : {
      "display-name" : "Hardware Status",
      "im.dstype" : "gauge",
      "im.dstype.displaytype" : "state",
      "im.identity-tags" : "name",
      "im.metric-type" : "ts",
      "im.name" : "hardware-element-status",
      "im.step" : "300",
      "live-config" : "true",
      "name" : "+12V",
      "type" : "Voltage"
    },
    "value" : "1.0"
  }, {
    "tags" : {
      "display-name" : "Hardware Status",
      "im.dstype" : "gauge",
      "im.dstype.displaytype" : "state",
      "im.identity-tags" : "name",
      "im.metric-type" : "ts",
      "im.name" : "hardware-element-status",
      "im.step" : "300",
      "live-config" : "true",
      "name" : "1.5V",
      "type" : "Voltage"
    },
    "value" : "1.0"
  }, {
    "tags" : {
      "display-name" : "Hardware Status",
      "im.dstype" : "gauge",
      "im.dstype.displaytype" : "state",
      "im.identity-tags" : "name",
      "im.metric-type" : "ts",
      "im.name" : "hardware-element-status",
      "im.step" : "300",
      "live-config" : "true",
      "name" : "3VSB",
      "type" : "Voltage"
    },
    "value" : "1.0"
  }, {
    "tags" : {
      "display-name" : "Hardware Status",
      "im.dstype" : "gauge",
      "im.dstype.displaytype" : "state",
      "im.identity-tags" : "name",
      "im.metric-type" : "ts",
      "im.name" : "hardware-element-status",
      "im.step" : "300",
      "live-config" : "true",
      "name" : "5V",
      "type" : "Voltage"
    },
    "value" : "1.0"
  }, {
    "tags" : {
      "display-name" : "Hardware Status",
      "im.dstype" : "gauge",
      "im.dstype.displaytype" : "state",
      "im.identity-tags" : "name",
      "im.metric-type" : "ts",
      "im.name" : "hardware-element-status",
      "im.step" : "300",
      "live-config" : "true",
      "name" : "CPU0 FAN",
      "type" : "Fan"
    },
    "value" : "1.0"
  }, {
    "tags" : {
      "display-name" : "Hardware Status",
      "im.dstype" : "gauge",
      "im.dstype.displaytype" : "state",
      "im.identity-tags" : "name",
      "im.metric-type" : "ts",
      "im.name" : "hardware-element-status",
      "im.step" : "300",
      "live-config" : "true",
      "name" : "CPU0 TEMP",
      "type" : "Temperature"
    },
    "value" : "1.0"
  }, {
    "tags" : {
      "display-name" : "Hardware Status",
      "im.dstype" : "gauge",
      "im.dstype.displaytype" : "state",
      "im.identity-tags" : "name",
      "im.metric-type" : "ts",
      "im.name" : "hardware-element-status",
      "im.step" : "300",
      "live-config" : "true",
      "name" : "CPU1 FAN",
      "type" : "Fan"
    },
    "value" : "1.0"
  }, {
    "tags" : {
      "display-name" : "Hardware Status",
      "im.dstype" : "gauge",
      "im.dstype.displaytype" : "state",
      "im.identity-tags" : "name",
      "im.metric-type" : "ts",
      "im.name" : "hardware-element-status",
      "im.step" : "300",
      "live-config" : "true",
      "name" : "CPU1 TEMP",
      "type" : "Temperature"
    },
    "value" : "1.0"
  }, {
    "tags" : {
      "display-name" : "Hardware Status",
      "im.dstype" : "gauge",
      "im.dstype.displaytype" : "state",
      "im.identity-tags" : "name",
      "im.metric-type" : "ts",
      "im.name" : "hardware-element-status",
      "im.step" : "300",
      "live-config" : "true",
      "name" : "Power Supply #1",
      "type" : "Power"
    },
    "value" : "0.0"
  }, {
    "tags" : {
      "display-name" : "Hardware Status",
      "im.dstype" : "gauge",
      "im.dstype.displaytype" : "state",
      "im.identity-tags" : "name",
      "im.metric-type" : "ts",
      "im.name" : "hardware-element-status",
      "im.step" : "300",
      "live-config" : "true",
      "name" : "Power Supply #2",
      "type" : "Power"
    },
    "value" : "1.0"
  }, {
    "tags" : {
      "display-name" : "Hardware Status",
      "im.dstype" : "gauge",
      "im.dstype.displaytype" : "state",
      "im.identity-tags" : "name",
      "im.metric-type" : "ts",
      "im.name" : "hardware-element-status",
      "im.step" : "300",
      "live-config" : "true",
      "name" : "Sys",
      "type" : "Temperature"
    },
    "value" : "1.0"
  }, {
    "tags" : {
      "display-name" : "Hardware Status",
      "im.dstype" : "gauge",
      "im.dstype.displaytype" : "state",
      "im.identity-tags" : "name",
      "im.metric-type" : "ts",
      "im.name" : "hardware-element-status",
      "im.step" : "300",
      "live-config" : "true",
      "name" : "SysFAN(J1)",
      "type" : "Fan"
    },
    "value" : "1.0"
  }, {
    "tags" : {
      "display-name" : "Hardware Status",
      "im.dstype" : "gauge",
      "im.dstype.displaytype" : "state",
      "im.identity-tags" : "name",
      "im.metric-type" : "ts",
      "im.name" : "hardware-element-status",
      "im.step" : "300",
      "live-config" : "true",
      "name" : "SysFAN(J2)",
      "type" : "Fan"
    },
    "value" : "1.0"
  }, {
    "tags" : {
      "display-name" : "Hardware Status",
      "im.dstype" : "gauge",
      "im.dstype.displaytype" : "state",
      "im.identity-tags" : "name",
      "im.metric-type" : "ts",
      "im.name" : "hardware-element-status",
      "im.step" : "300",
      "live-config" : "true",
      "name" : "SysFAN(J4)",
      "type" : "Fan"
    },
    "value" : "1.0"
  }, {
    "tags" : {
      "display-name" : "Hardware Status",
      "im.dstype" : "gauge",
      "im.dstype.displaytype" : "state",
      "im.identity-tags" : "name",
      "im.metric-type" : "ts",
      "im.name" : "hardware-element-status",
      "im.step" : "300",
      "live-config" : "true",
      "name" : "VCC",
      "type" : "Voltage"
    },
    "value" : "1.0"
  }, {
    "tags" : {
      "display-name" : "Hardware Status",
      "im.dstype" : "gauge",
      "im.dstype.displaytype" : "state",
      "im.identity-tags" : "name",
      "im.metric-type" : "ts",
      "im.name" : "hardware-element-status",
      "im.step" : "300",
      "live-config" : "true",
      "name" : "Vbat",
      "type" : "Voltage"
    },
    "value" : "1.0"
  }, {
    "tags" : {
      "display-name" : "Hardware Status",
      "im.dstype" : "gauge",
      "im.dstype.displaytype" : "state",
      "im.identity-tags" : "name",
      "im.metric-type" : "ts",
      "im.name" : "hardware-element-status",
      "im.step" : "300",
      "live-config" : "true",
      "name" : "Vcore0",
      "type" : "Voltage"
    },
    "value" : "0.0"
  }, {
    "tags" : {
      "display-name" : "Hardware Status",
      "im.dstype" : "gauge",
      "im.dstype.displaytype" : "state",
      "im.identity-tags" : "name",
      "im.metric-type" : "ts",
      "im.name" : "hardware-element-status",
      "im.step" : "300",
      "live-config" : "true",
      "name" : "Vcore1",
      "type" : "Voltage"
    },
    "value" : "1.0"
  } ]
}
